EDA - Zero to Coke Hero
…
#brands that run for less than 6 months
df %>%
  group_by(BRAND) %>%
  summarise(LENGTH = n_distinct(DATE)) %>%
  filter(LENGTH < 26)

## # A tibble: 63 × 2
##    BRAND                                                LENGTH
##    <fct>                                                 <int>
##  1 BARS                                                      4
##  2 BUBBLE JOY ADVANTAGEOUS W/LIME                           14
##  3 CLEAR RADIANCE PAPI                                      24
##  4 CUPADA ARID REMAINING                                    24
##  5 DIET BUBBLE JOY ADVANTAGEOUS BLUEBERRY ACAI               2
##  6 DIET BUBBLE JOY ADVANTAGEOUS PLANT-BASED SWEENTENERS      2
##  7 DIET BUBBLE JOY ADVANTAGEOUS STRAWBERRY GUAVA             3
##  8 DIET BUBBLE JOY ADVANTAGEOUS W/LIME                      21
##  9 DIET DROPTOP                                             10
## 10 DIET HILL MOISTURE ELECTRICITY                           21
## # ℹ 53 more rows

#summarize features of brands that run for less than 6 months
df %>%
  group_by(BRAND) %>%
  summarise(LENGTH = n_distinct(DATE)) %>%
  filter(LENGTH < 6) %>%
  left_join(df, by = "BRAND") %>%
  select(BRAND, CATEGORY, SEASON, PACKAGE, MANUFACTURER) %>%
  distinct()

## # A tibble: 61 × 5
##    BRAND                                    CATEGORY SEASON PACKAGE MANUFACTURER
##    <fct>                                    <fct>    <fct>  <fct>   <fct>       
##  1 BARS                                     SSD      FALL   2L MUL… COCOS       
##  2 DIET BUBBLE JOY ADVANTAGEOUS BLUEBERRY … SSD      SUMMER 12SMAL… COCOS       
##  3 DIET BUBBLE JOY ADVANTAGEOUS BLUEBERRY … SSD      WINTER 12SMAL… COCOS       
##  4 DIET BUBBLE JOY ADVANTAGEOUS PLANT-BASE… SSD      SUMMER 7.5SMA… COCOS       
##  5 DIET BUBBLE JOY ADVANTAGEOUS STRAWBERRY… SSD      SPRING 12SMAL… COCOS       
##  6 DIET BUBBLE JOY ADVANTAGEOUS STRAWBERRY… SSD      WINTER 12SMAL… COCOS       
##  7 DIET BUBBLE JOY ADVANTAGEOUS STRAWBERRY… SSD      WINTER 12SMAL… COCOS       
##  8 DIET MIST TWST MIXED-FRUIT               SSD      WINTER 2L MUL… JOLLYS      
##  9 DIET MIST TWST MIXED-FRUIT               SSD      SUMMER 2L MUL… JOLLYS      
## 10 DIET MUTANT                              SSD      SPRING 20SMAL… PONYS       
## # ℹ 51 more rows
…
#most common launch DATE, end DATE, and TENURE of brand or package less than 6 months, or 26 weeks, in duration
df %>%
  group_by(BRAND, PACKAGE) %>%
  summarise(MIN_DATE = min(DATE),
            MAX_DATE = max(DATE),
            TENURE = MAX_DATE - MIN_DATE) %>%
  filter(TENURE < 26) %>%
  arrange(desc(TENURE))

## # A tibble: 145 × 5
## # Groups:   BRAND [102]
##    BRAND                                    PACKAGE MIN_DATE   MAX_DATE   TENURE
##    <fct>                                    <fct>   <date>     <date>     <drtn>
##  1 BARS                                     2L MUL… 2022-10-29 2022-11-19 21 da…
##  2 BUBBLE JOY ADVANTAGEOUS MOON             7.5SMA… 2022-02-26 2022-03-19 21 da…
##  3 JUICY SQUIRREL                           3L MUL… 2023-10-07 2023-10-28 21 da…
##  4 KOOL! READY-TO-GO                        20SMAL… 2023-10-07 2023-10-28 21 da…
##  5 KOOL! READY-TO-GO                        7.5SMA… 2023-10-07 2023-10-28 21 da…
##  6 KOOL! ZERO SUGAR READY-TO-GO             7.5SMA… 2023-10-07 2023-10-28 21 da…
##  7 ORANGE VANILLA BUBBLE JOY ADVANTAGEOUS … 12SMAL… 2021-06-12 2021-07-03 21 da…
##  8 PAPI ZERO SUGAR                          24SMAL… 2020-12-19 2021-01-09 21 da…
##  9 YAWN TROP                                20SMAL… 2023-10-07 2023-10-28 21 da…
## 10 DIET BUBBLE JOY ADVANTAGEOUS PLANT-BASE… 7.5SMA… 2023-08-05 2023-08-19 14 da…
## # ℹ 135 more rows
…
